%YAML 1.1
%TAG !u! tag:unity3d.com,2011:
--- !u!1 &1639991221046246588
GameObject:
  m_ObjectHideFlags: 0
  m_CorrespondingSourceObject: {fileID: 0}
  m_PrefabInstance: {fileID: 0}
  m_PrefabAsset: {fileID: 0}
  serializedVersion: 6
  m_Component:
  - component: {fileID: 4203767638115578459}
  - component: {fileID: 8157153063488931960}
  m_Layer: 0
  m_Name: Rooms
  m_TagString: Rooms
  m_Icon: {fileID: 0}
  m_NavMeshLayer: 0
  m_StaticEditorFlags: 0
  m_IsActive: 1
--- !u!4 &4203767638115578459
Transform:
  m_ObjectHideFlags: 0
  m_CorrespondingSourceObject: {fileID: 0}
  m_PrefabInstance: {fileID: 0}
  m_PrefabAsset: {fileID: 0}
  m_GameObject: {fileID: 1639991221046246588}
  m_LocalRotation: {x: 0, y: 0, z: 0, w: 1}
  m_LocalPosition: {x: 10.076302, y: 6.4045925, z: -1.3888094}
  m_LocalScale: {x: 1, y: 1, z: 1}
  m_Children: []
  m_Father: {fileID: 0}
  m_RootOrder: 0
  m_LocalEulerAnglesHint: {x: 0, y: 0, z: 0}
--- !u!114 &8157153063488931960
MonoBehaviour:
  m_ObjectHideFlags: 0
  m_CorrespondingSourceObject: {fileID: 0}
  m_PrefabInstance: {fileID: 0}
  m_PrefabAsset: {fileID: 0}
  m_GameObject: {fileID: 1639991221046246588}
  m_Enabled: 1
  m_EditorHideFlags: 0
  m_Script: {fileID: 11500000, guid: 2ec79398cf55ef041bd10291ce590842, type: 3}
  m_Name: 
  m_EditorClassIdentifier: 
  HL:
  - {fileID: 8151059318107929635, guid: 21d1bc4bf48396a44b01a03a39920adc, type: 3}
  - {fileID: 1390448151765459314, guid: a2404963e99fe304a803fb1c96e10757, type: 3}
  - {fileID: 4345639825794097792, guid: eeb45d4ea2c31e549b3517f35667f2c8, type: 3}
  LU:
  - {fileID: 8151059318107929635, guid: 21d1bc4bf48396a44b01a03a39920adc, type: 3}
  - {fileID: 7531723589197365555, guid: 8ea2a839d791b744792afcb918b94719, type: 3}
  - {fileID: 4040019468398719986, guid: 3598613ad8442834f84210add8d9ca4b, type: 3}
  RU:
  - {fileID: 1390448151765459314, guid: a2404963e99fe304a803fb1c96e10757, type: 3}
  - {fileID: 7018576421192599532, guid: c0b0c463e28f1584692759b975a6e6ee, type: 3}
  - {fileID: 2939758807034164916, guid: 1d498a6944252aa4fa1dd49ce7ff177e, type: 3}
  - {fileID: 5941773430649148009, guid: cf03d2ca1cb66544384df02900849362, type: 3}
  - {fileID: 8362283090871509314, guid: d06313082a241c54d80be1704f47c1db, type: 3}
  HR:
  - {fileID: 4565939934120626056, guid: f1789f6580dd60645ba8298760206bf6, type: 3}
  - {fileID: 7018576421192599532, guid: c0b0c463e28f1584692759b975a6e6ee, type: 3}
  - {fileID: 2939758807034164916, guid: 1d498a6944252aa4fa1dd49ce7ff177e, type: 3}
  LR:
  - {fileID: 8151059318107929635, guid: 21d1bc4bf48396a44b01a03a39920adc, type: 3}
  - {fileID: 1390448151765459314, guid: a2404963e99fe304a803fb1c96e10757, type: 3}
  - {fileID: 2065526005453035314, guid: 0be7c2b888249ae47bc3cde003348eec, type: 3}
  - {fileID: 2892468763438643369, guid: cb57d1557cc3154459b62767897225ab, type: 3}
  - {fileID: 3963015212310089796, guid: 160a5f953dace014badad1b6a506c528, type: 3}
  - {fileID: 8362283090871509314, guid: d06313082a241c54d80be1704f47c1db, type: 3}
  RD:
  - {fileID: 8151059318107929635, guid: 21d1bc4bf48396a44b01a03a39920adc, type: 3}
  - {fileID: 3963015212310089796, guid: 160a5f953dace014badad1b6a506c528, type: 3}
  - {fileID: 3598869763147591629, guid: a7cd350b99b045743aa3cafb375d0cd7, type: 3}
  LD:
  - {fileID: 7206226196534969604, guid: a8201aa743f261341a422569f5c2c8ff, type: 3}
  - {fileID: 2065526005453035314, guid: 0be7c2b888249ae47bc3cde003348eec, type: 3}
  - {fileID: 5359361672514908225, guid: abc546b7bdc2004418ab83a7a1b0ed3d, type: 3}
  LL:
  - {fileID: 2065526005453035314, guid: 0be7c2b888249ae47bc3cde003348eec, type: 3}
  - {fileID: 7531723589197365555, guid: 8ea2a839d791b744792afcb918b94719, type: 3}
  - {fileID: 7018576421192599532, guid: c0b0c463e28f1584692759b975a6e6ee, type: 3}
  - {fileID: 2939758807034164916, guid: 1d498a6944252aa4fa1dd49ce7ff177e, type: 3}
  - {fileID: 3690640881705195726, guid: 1ded6c34744d61d419e23cb29d75062e, type: 3}
  closedroom: {fileID: 2894077137597816096, guid: 0fa02d5ea60733e40a257b48d27b016b, type: 3}
  start:
  - {fileID: 8151059318107929635, guid: 21d1bc4bf48396a44b01a03a39920adc, type: 3}
  - {fileID: 1390448151765459314, guid: a2404963e99fe304a803fb1c96e10757, type: 3}
  rooms: []
  objects:
  - {fileID: 6020572730196480473, guid: f50f6be99aa10a342a37e17f722959b5, type: 3}
  - {fileID: 8952622288042101985, guid: 4a95d097b5b679645a6bb69bf1bf0b56, type: 3}
  - {fileID: 608568576242954484, guid: 618ff0aeeb42c1c4ca16a63821be1afa, type: 3}
  doors: {fileID: 4363097799400154058, guid: aef612e19be813a44a44eebba9e6f6da, type: 3}
  waitTime: 5
  food:
  - {fileID: 4200013947123373533, guid: 2f386b74db61af24a812a3a97c2e6598, type: 3}
  - {fileID: 3050987481520118208, guid: 9b10c554dc5b42f4499b240744f03d3c, type: 3}
  - {fileID: 604837995552598633, guid: 77c78f5ce235c6c479f62366479d2df9, type: 3}
  - {fileID: 6967895906434440564, guid: c7ef05b3fdde76a49b775ec28f064134, type: 3}
  - {fileID: 6057108494477209004, guid: 67d5e574b1e3ec04a81aeab34d2f71aa, type: 3}
  - {fileID: 6042329660057006628, guid: ca784709f20e0304ca1f38d2ab40878f, type: 3}
  - {fileID: 1621096888102882345, guid: 26e80e07c4c7a69429773b31fe170574, type: 3}
  - {fileID: 3390706957902540498, guid: c0ff4938b2cd9334696ad473af940fc2, type: 3}
  - {fileID: 2206408121059159606, guid: 7a639ea544c529f428e7970f8681a155, type: 3}
