%YAML 1.1
%TAG !u! tag:unity3d.com,2011:
--- !u!162 &1
EditorUserSettings:
  m_ObjectHideFlags: 0
  serializedVersion: 4
  m_ConfigSettings:
    RecentlyUsedScenePath-0:
      value: 224247031146467c021a042b13355e1e1f16551e233f287f1e2a183de7f37b3ce7ea39a7f234362820
      flags: 0
    RecentlyUsedScenePath-1:
      value: 224247031146466b0416092e42077c110503142f18212a353e2c097cc6e53937adc333e4e8742a323016f6
      flags: 0
    RecentlyUsedScenePath-2:
      value: 22424703114646680e0b0227036c6c111b07142f1f2b233e2867083debf42d
      flags: 0
    RecentlyUsedScenePath-3:
      value: 2242470311464673081c03623b2d56171e0358676c182f2828255d12f0f47b1ce7ea39a6c33f32337717e1351027
      flags: 0
    RecentlyUsedScenePath-4:
      value: 22424703114646680e0b0227036c791904040c263a2468252320092a
      flags: 0
    RecentlyUsedScenePath-5:
      value: 224247031146467d0c001823033a1f2719181c2f2268010504695d15f0e53177d1e433e7e2751b39340da1290a371526
      flags: 0
    RecentlyUsedScenePath-6:
      value: 22424703114646680e0b0227036c78111b12563f22213229
      flags: 0
    RecentlyUsedScenePath-7:
      value: 22424703114646680e0b0227036c72111f19352f223d68252320092a
      flags: 0
    RecentlyUsedScenePath-8:
      value: 22424703114646680e0b0227036c7d1f05040a25232568252320092a
      flags: 0
    vcSharedLogLevel:
      value: 0d5e400f0650
      flags: 0
  m_VCAutomaticAdd: 1
  m_VCDebugCom: 0
  m_VCDebugCmd: 0
  m_VCDebugOut: 0
  m_SemanticMergeMode: 2
  m_VCShowFailedCheckout: 1
  m_VCOverwriteFailedCheckoutAssets: 1
  m_VCProjectOverlayIcons: 1
  m_VCHierarchyOverlayIcons: 1
  m_VCOtherOverlayIcons: 1
  m_VCAllowAsyncUpdate: 1
